<mxfile host="app.diagrams.net" modified="2022-12-05T13:48:27.826Z" agent="5.0 (Windows NT 10.0; Win64; x64) AppleWebKit/537.36 (KHTML, like Gecko) Chrome/106.0.0.0 YaBrowser/22.11.0.2500 Yowser/2.5 Safari/537.36" etag="g832WJeIp4qbmTViwbcO" version="20.6.0" type="gitlab" pages="2">
  <diagram id="lhC4YJKqsG56CEbpS2Io" name="Page 1">
    <mxGraphModel dx="2187" dy="829" grid="1" gridSize="10" guides="1" tooltips="1" connect="1" arrows="1" fold="1" page="1" pageScale="1" pageWidth="827" pageHeight="1169" math="0" shadow="0">
      <root>
        <mxCell id="0" />
        <mxCell id="1" parent="0" />
        <mxCell id="uCJwQiDcoW36MTH-ZRmm-4" style="edgeStyle=orthogonalEdgeStyle;rounded=0;orthogonalLoop=1;jettySize=auto;html=1;exitX=0.5;exitY=1;exitDx=0;exitDy=0;entryX=0.5;entryY=0;entryDx=0;entryDy=0;endArrow=none;endFill=0;strokeWidth=4;shadow=1;sketch=1;fontSize=16;fontStyle=1;fontColor=#B3B3B3;strokeColor=#999999;" parent="1" source="uCJwQiDcoW36MTH-ZRmm-1" target="uCJwQiDcoW36MTH-ZRmm-2" edge="1">
          <mxGeometry relative="1" as="geometry" />
        </mxCell>
        <mxCell id="uCJwQiDcoW36MTH-ZRmm-5" style="edgeStyle=orthogonalEdgeStyle;rounded=0;orthogonalLoop=1;jettySize=auto;html=1;exitX=0.5;exitY=1;exitDx=0;exitDy=0;entryX=0.5;entryY=0;entryDx=0;entryDy=0;endArrow=none;endFill=0;strokeWidth=4;shadow=1;sketch=1;fontSize=16;fontStyle=1;fontColor=#B3B3B3;strokeColor=#999999;" parent="1" source="uCJwQiDcoW36MTH-ZRmm-1" target="uCJwQiDcoW36MTH-ZRmm-3" edge="1">
          <mxGeometry relative="1" as="geometry" />
        </mxCell>
        <mxCell id="uCJwQiDcoW36MTH-ZRmm-1" value="Project" style="rounded=0;whiteSpace=wrap;html=1;strokeWidth=4;shadow=1;sketch=1;fontSize=16;fontStyle=1;fillColor=#d5e8d4;strokeColor=#82b366;" parent="1" vertex="1">
          <mxGeometry x="360" y="40" width="120" height="80" as="geometry" />
        </mxCell>
        <mxCell id="uCJwQiDcoW36MTH-ZRmm-9" style="edgeStyle=orthogonalEdgeStyle;rounded=0;orthogonalLoop=1;jettySize=auto;html=1;exitX=0.5;exitY=1;exitDx=0;exitDy=0;entryX=0.5;entryY=0;entryDx=0;entryDy=0;endArrow=none;endFill=0;strokeWidth=4;shadow=1;sketch=1;fontSize=16;fontStyle=1;fontColor=#B3B3B3;strokeColor=#999999;" parent="1" source="uCJwQiDcoW36MTH-ZRmm-2" target="uCJwQiDcoW36MTH-ZRmm-8" edge="1">
          <mxGeometry relative="1" as="geometry" />
        </mxCell>
        <mxCell id="uCJwQiDcoW36MTH-ZRmm-10" style="edgeStyle=orthogonalEdgeStyle;rounded=0;orthogonalLoop=1;jettySize=auto;html=1;exitX=0.5;exitY=1;exitDx=0;exitDy=0;entryX=0.5;entryY=0;entryDx=0;entryDy=0;endArrow=none;endFill=0;strokeWidth=4;shadow=1;sketch=1;fontSize=16;fontStyle=1;fontColor=#B3B3B3;strokeColor=#999999;" parent="1" source="uCJwQiDcoW36MTH-ZRmm-2" target="uCJwQiDcoW36MTH-ZRmm-7" edge="1">
          <mxGeometry relative="1" as="geometry" />
        </mxCell>
        <mxCell id="uCJwQiDcoW36MTH-ZRmm-11" style="edgeStyle=orthogonalEdgeStyle;rounded=0;orthogonalLoop=1;jettySize=auto;html=1;exitX=0.5;exitY=1;exitDx=0;exitDy=0;entryX=0.5;entryY=0;entryDx=0;entryDy=0;endArrow=none;endFill=0;strokeWidth=4;shadow=1;sketch=1;fontSize=16;fontStyle=1;fontColor=#B3B3B3;strokeColor=#999999;" parent="1" source="uCJwQiDcoW36MTH-ZRmm-2" target="uCJwQiDcoW36MTH-ZRmm-6" edge="1">
          <mxGeometry relative="1" as="geometry" />
        </mxCell>
        <mxCell id="uCJwQiDcoW36MTH-ZRmm-2" value="Users" style="rounded=0;whiteSpace=wrap;html=1;strokeWidth=4;shadow=1;sketch=1;fontSize=16;fontStyle=1;fillColor=#fff2cc;strokeColor=#d6b656;" parent="1" vertex="1">
          <mxGeometry x="120" y="160" width="120" height="80" as="geometry" />
        </mxCell>
        <mxCell id="uCJwQiDcoW36MTH-ZRmm-15" style="edgeStyle=orthogonalEdgeStyle;rounded=0;orthogonalLoop=1;jettySize=auto;html=1;exitX=0.5;exitY=1;exitDx=0;exitDy=0;entryX=0.5;entryY=0;entryDx=0;entryDy=0;endArrow=none;endFill=0;strokeWidth=4;shadow=1;sketch=1;fontSize=16;fontStyle=1;fontColor=#B3B3B3;strokeColor=#999999;" parent="1" source="uCJwQiDcoW36MTH-ZRmm-3" target="uCJwQiDcoW36MTH-ZRmm-13" edge="1">
          <mxGeometry relative="1" as="geometry" />
        </mxCell>
        <mxCell id="uCJwQiDcoW36MTH-ZRmm-16" style="edgeStyle=orthogonalEdgeStyle;rounded=0;orthogonalLoop=1;jettySize=auto;html=1;exitX=0.5;exitY=1;exitDx=0;exitDy=0;entryX=0.5;entryY=0;entryDx=0;entryDy=0;endArrow=none;endFill=0;strokeWidth=4;shadow=1;sketch=1;fontSize=16;fontStyle=1;fontColor=#B3B3B3;strokeColor=#999999;" parent="1" source="uCJwQiDcoW36MTH-ZRmm-3" target="uCJwQiDcoW36MTH-ZRmm-14" edge="1">
          <mxGeometry relative="1" as="geometry" />
        </mxCell>
        <mxCell id="uCJwQiDcoW36MTH-ZRmm-17" style="edgeStyle=orthogonalEdgeStyle;rounded=0;orthogonalLoop=1;jettySize=auto;html=1;exitX=0.5;exitY=1;exitDx=0;exitDy=0;entryX=0.5;entryY=0;entryDx=0;entryDy=0;endArrow=none;endFill=0;strokeWidth=4;shadow=1;sketch=1;fontSize=16;fontStyle=1;fontColor=#B3B3B3;strokeColor=#999999;" parent="1" source="uCJwQiDcoW36MTH-ZRmm-3" target="uCJwQiDcoW36MTH-ZRmm-12" edge="1">
          <mxGeometry relative="1" as="geometry" />
        </mxCell>
        <mxCell id="uCJwQiDcoW36MTH-ZRmm-3" value="Admin" style="rounded=0;whiteSpace=wrap;html=1;strokeWidth=4;shadow=1;sketch=1;fontSize=16;fontStyle=1;fillColor=#fff2cc;strokeColor=#d6b656;" parent="1" vertex="1">
          <mxGeometry x="600" y="160" width="120" height="80" as="geometry" />
        </mxCell>
        <mxCell id="uCJwQiDcoW36MTH-ZRmm-26" style="edgeStyle=orthogonalEdgeStyle;rounded=0;orthogonalLoop=1;jettySize=auto;html=1;exitX=0;exitY=0.5;exitDx=0;exitDy=0;entryX=0;entryY=0.5;entryDx=0;entryDy=0;endArrow=none;endFill=0;strokeWidth=4;shadow=1;sketch=1;fontSize=16;fontStyle=1;fontColor=#000000;strokeColor=#999999;" parent="1" source="uCJwQiDcoW36MTH-ZRmm-6" target="uCJwQiDcoW36MTH-ZRmm-24" edge="1">
          <mxGeometry relative="1" as="geometry" />
        </mxCell>
        <mxCell id="uCJwQiDcoW36MTH-ZRmm-27" style="edgeStyle=orthogonalEdgeStyle;rounded=0;orthogonalLoop=1;jettySize=auto;html=1;exitX=0;exitY=0.5;exitDx=0;exitDy=0;entryX=0;entryY=0.5;entryDx=0;entryDy=0;endArrow=none;endFill=0;strokeWidth=4;shadow=1;sketch=1;fontSize=16;fontStyle=1;fontColor=#B3B3B3;strokeColor=#999999;" parent="1" source="uCJwQiDcoW36MTH-ZRmm-6" target="uCJwQiDcoW36MTH-ZRmm-25" edge="1">
          <mxGeometry relative="1" as="geometry" />
        </mxCell>
        <mxCell id="uCJwQiDcoW36MTH-ZRmm-6" value="Monitoring" style="rounded=0;whiteSpace=wrap;html=1;strokeWidth=4;shadow=1;sketch=1;fontSize=16;fontStyle=1;fillColor=#e1d5e7;strokeColor=#9673a6;" parent="1" vertex="1">
          <mxGeometry x="120" y="280" width="120" height="80" as="geometry" />
        </mxCell>
        <mxCell id="uCJwQiDcoW36MTH-ZRmm-30" style="edgeStyle=orthogonalEdgeStyle;rounded=0;orthogonalLoop=1;jettySize=auto;html=1;exitX=0;exitY=0.5;exitDx=0;exitDy=0;entryX=0;entryY=0.5;entryDx=0;entryDy=0;endArrow=none;endFill=0;strokeWidth=4;shadow=1;sketch=1;fontSize=16;fontStyle=1;fontColor=#000000;strokeColor=#999999;" parent="1" source="uCJwQiDcoW36MTH-ZRmm-7" target="uCJwQiDcoW36MTH-ZRmm-28" edge="1">
          <mxGeometry relative="1" as="geometry" />
        </mxCell>
        <mxCell id="uCJwQiDcoW36MTH-ZRmm-31" style="edgeStyle=orthogonalEdgeStyle;rounded=0;orthogonalLoop=1;jettySize=auto;html=1;exitX=0;exitY=0.5;exitDx=0;exitDy=0;entryX=0;entryY=0.5;entryDx=0;entryDy=0;endArrow=none;endFill=0;strokeWidth=4;shadow=1;sketch=1;fontSize=16;fontStyle=1;fontColor=#000000;strokeColor=#999999;" parent="1" source="uCJwQiDcoW36MTH-ZRmm-7" target="uCJwQiDcoW36MTH-ZRmm-29" edge="1">
          <mxGeometry relative="1" as="geometry" />
        </mxCell>
        <mxCell id="uCJwQiDcoW36MTH-ZRmm-7" value="Calendar" style="rounded=0;whiteSpace=wrap;html=1;strokeWidth=4;shadow=1;sketch=1;fontSize=16;fontStyle=1;fillColor=#e1d5e7;strokeColor=#9673a6;" parent="1" vertex="1">
          <mxGeometry x="280" y="280" width="120" height="80" as="geometry" />
        </mxCell>
        <mxCell id="uCJwQiDcoW36MTH-ZRmm-21" style="edgeStyle=orthogonalEdgeStyle;rounded=0;orthogonalLoop=1;jettySize=auto;html=1;exitX=0;exitY=0.5;exitDx=0;exitDy=0;entryX=0;entryY=0.5;entryDx=0;entryDy=0;endArrow=none;endFill=0;strokeWidth=4;shadow=1;sketch=1;fontSize=16;fontStyle=1;fontColor=#B3B3B3;strokeColor=#999999;" parent="1" source="uCJwQiDcoW36MTH-ZRmm-8" target="uCJwQiDcoW36MTH-ZRmm-18" edge="1">
          <mxGeometry relative="1" as="geometry" />
        </mxCell>
        <mxCell id="uCJwQiDcoW36MTH-ZRmm-22" style="edgeStyle=orthogonalEdgeStyle;rounded=0;orthogonalLoop=1;jettySize=auto;html=1;exitX=0;exitY=0.5;exitDx=0;exitDy=0;entryX=0;entryY=0.5;entryDx=0;entryDy=0;endArrow=none;endFill=0;strokeWidth=4;shadow=1;sketch=1;fontSize=16;fontStyle=1;fontColor=#B3B3B3;strokeColor=#999999;" parent="1" source="uCJwQiDcoW36MTH-ZRmm-8" target="uCJwQiDcoW36MTH-ZRmm-19" edge="1">
          <mxGeometry relative="1" as="geometry" />
        </mxCell>
        <mxCell id="uCJwQiDcoW36MTH-ZRmm-23" style="edgeStyle=orthogonalEdgeStyle;rounded=0;orthogonalLoop=1;jettySize=auto;html=1;exitX=0;exitY=0.5;exitDx=0;exitDy=0;entryX=0;entryY=0.5;entryDx=0;entryDy=0;endArrow=none;endFill=0;strokeWidth=4;shadow=1;sketch=1;fontSize=16;fontStyle=1;fontColor=#B3B3B3;strokeColor=#999999;" parent="1" source="uCJwQiDcoW36MTH-ZRmm-8" target="uCJwQiDcoW36MTH-ZRmm-20" edge="1">
          <mxGeometry relative="1" as="geometry" />
        </mxCell>
        <mxCell id="uCJwQiDcoW36MTH-ZRmm-8" value="List" style="rounded=0;whiteSpace=wrap;html=1;strokeWidth=4;shadow=1;sketch=1;fontSize=16;fontStyle=1;fillColor=#e1d5e7;strokeColor=#9673a6;" parent="1" vertex="1">
          <mxGeometry x="-40" y="280" width="120" height="80" as="geometry" />
        </mxCell>
        <mxCell id="uCJwQiDcoW36MTH-ZRmm-36" style="edgeStyle=orthogonalEdgeStyle;rounded=0;orthogonalLoop=1;jettySize=auto;html=1;exitX=0;exitY=0.5;exitDx=0;exitDy=0;entryX=0;entryY=0.5;entryDx=0;entryDy=0;endArrow=none;endFill=0;strokeWidth=4;shadow=1;sketch=1;fontSize=16;fontStyle=1;fontColor=#000000;strokeColor=#999999;" parent="1" source="uCJwQiDcoW36MTH-ZRmm-12" target="uCJwQiDcoW36MTH-ZRmm-34" edge="1">
          <mxGeometry relative="1" as="geometry" />
        </mxCell>
        <mxCell id="uCJwQiDcoW36MTH-ZRmm-37" style="edgeStyle=orthogonalEdgeStyle;rounded=0;orthogonalLoop=1;jettySize=auto;html=1;exitX=0;exitY=0.5;exitDx=0;exitDy=0;entryX=0;entryY=0.5;entryDx=0;entryDy=0;endArrow=none;endFill=0;strokeWidth=4;shadow=1;sketch=1;fontSize=16;fontStyle=1;fontColor=#000000;strokeColor=#999999;" parent="1" source="uCJwQiDcoW36MTH-ZRmm-12" target="uCJwQiDcoW36MTH-ZRmm-35" edge="1">
          <mxGeometry relative="1" as="geometry" />
        </mxCell>
        <mxCell id="uCJwQiDcoW36MTH-ZRmm-12" value="Creator" style="rounded=0;whiteSpace=wrap;html=1;strokeWidth=4;shadow=1;sketch=1;fontSize=16;fontStyle=1;fillColor=#e1d5e7;strokeColor=#9673a6;" parent="1" vertex="1">
          <mxGeometry x="600" y="280" width="120" height="80" as="geometry" />
        </mxCell>
        <mxCell id="uCJwQiDcoW36MTH-ZRmm-33" style="edgeStyle=orthogonalEdgeStyle;rounded=0;orthogonalLoop=1;jettySize=auto;html=1;exitX=0;exitY=0.5;exitDx=0;exitDy=0;entryX=0;entryY=0.5;entryDx=0;entryDy=0;endArrow=none;endFill=0;strokeWidth=4;shadow=1;sketch=1;fontSize=16;fontStyle=1;fontColor=#000000;strokeColor=#999999;" parent="1" source="uCJwQiDcoW36MTH-ZRmm-13" target="uCJwQiDcoW36MTH-ZRmm-32" edge="1">
          <mxGeometry relative="1" as="geometry" />
        </mxCell>
        <mxCell id="uCJwQiDcoW36MTH-ZRmm-13" value="CRUD" style="rounded=0;whiteSpace=wrap;html=1;strokeWidth=4;shadow=1;sketch=1;fontSize=16;fontStyle=1;fillColor=#e1d5e7;strokeColor=#9673a6;" parent="1" vertex="1">
          <mxGeometry x="440" y="280" width="120" height="80" as="geometry" />
        </mxCell>
        <mxCell id="uCJwQiDcoW36MTH-ZRmm-39" style="edgeStyle=orthogonalEdgeStyle;rounded=0;orthogonalLoop=1;jettySize=auto;html=1;exitX=0;exitY=0.5;exitDx=0;exitDy=0;entryX=0;entryY=0.5;entryDx=0;entryDy=0;endArrow=none;endFill=0;strokeWidth=4;shadow=1;sketch=1;fontSize=16;fontStyle=1;fontColor=#000000;strokeColor=#999999;" parent="1" source="uCJwQiDcoW36MTH-ZRmm-14" target="uCJwQiDcoW36MTH-ZRmm-38" edge="1">
          <mxGeometry relative="1" as="geometry" />
        </mxCell>
        <mxCell id="uCJwQiDcoW36MTH-ZRmm-14" value="info" style="rounded=0;whiteSpace=wrap;html=1;strokeWidth=4;shadow=1;sketch=1;fontSize=16;fontStyle=1;fillColor=#e1d5e7;strokeColor=#9673a6;" parent="1" vertex="1">
          <mxGeometry x="760" y="280" width="120" height="80" as="geometry" />
        </mxCell>
        <mxCell id="uCJwQiDcoW36MTH-ZRmm-18" value="Date" style="rounded=0;whiteSpace=wrap;html=1;strokeWidth=4;shadow=1;sketch=1;fontSize=16;fontStyle=1;fillColor=#f8cecc;strokeColor=#b85450;" parent="1" vertex="1">
          <mxGeometry x="-40" y="400" width="120" height="80" as="geometry" />
        </mxCell>
        <mxCell id="uCJwQiDcoW36MTH-ZRmm-19" value="Form" style="rounded=0;whiteSpace=wrap;html=1;strokeWidth=4;shadow=1;sketch=1;fontSize=16;fontStyle=1;fillColor=#f8cecc;strokeColor=#b85450;" parent="1" vertex="1">
          <mxGeometry x="-40" y="520" width="120" height="80" as="geometry" />
        </mxCell>
        <mxCell id="uCJwQiDcoW36MTH-ZRmm-20" value="Sig" style="rounded=0;whiteSpace=wrap;html=1;strokeWidth=4;shadow=1;sketch=1;fontSize=16;fontStyle=1;fillColor=#f8cecc;strokeColor=#b85450;" parent="1" vertex="1">
          <mxGeometry x="-40" y="640" width="120" height="80" as="geometry" />
        </mxCell>
        <mxCell id="uCJwQiDcoW36MTH-ZRmm-24" value="Charts" style="rounded=0;whiteSpace=wrap;html=1;strokeWidth=4;shadow=1;sketch=1;fontSize=16;fontStyle=1;fillColor=#f8cecc;strokeColor=#b85450;" parent="1" vertex="1">
          <mxGeometry x="120" y="400" width="120" height="80" as="geometry" />
        </mxCell>
        <mxCell id="uCJwQiDcoW36MTH-ZRmm-25" value="Queu" style="rounded=0;whiteSpace=wrap;html=1;strokeWidth=4;shadow=1;sketch=1;fontSize=16;fontStyle=1;fillColor=#f8cecc;strokeColor=#b85450;" parent="1" vertex="1">
          <mxGeometry x="120" y="520" width="120" height="80" as="geometry" />
        </mxCell>
        <mxCell id="uCJwQiDcoW36MTH-ZRmm-28" value="Show tasks" style="rounded=0;whiteSpace=wrap;html=1;strokeWidth=4;shadow=1;sketch=1;fontSize=16;fontStyle=1;fillColor=#f8cecc;strokeColor=#b85450;" parent="1" vertex="1">
          <mxGeometry x="280" y="400" width="120" height="80" as="geometry" />
        </mxCell>
        <mxCell id="uCJwQiDcoW36MTH-ZRmm-29" value="Group" style="rounded=0;whiteSpace=wrap;html=1;strokeWidth=4;shadow=1;sketch=1;fontSize=16;fontStyle=1;fillColor=#f8cecc;strokeColor=#b85450;" parent="1" vertex="1">
          <mxGeometry x="280" y="520" width="120" height="80" as="geometry" />
        </mxCell>
        <mxCell id="uCJwQiDcoW36MTH-ZRmm-32" value="Add crud for new entity" style="rounded=0;whiteSpace=wrap;html=1;strokeWidth=4;shadow=1;sketch=1;fontSize=16;fontStyle=1;fillColor=#f8cecc;strokeColor=#b85450;" parent="1" vertex="1">
          <mxGeometry x="440" y="400" width="120" height="80" as="geometry" />
        </mxCell>
        <mxCell id="uCJwQiDcoW36MTH-ZRmm-34" value="Form" style="rounded=0;whiteSpace=wrap;html=1;strokeWidth=4;shadow=1;sketch=1;fontSize=16;fontStyle=1;fillColor=#dae8fc;strokeColor=#6c8ebf;" parent="1" vertex="1">
          <mxGeometry x="600" y="400" width="120" height="80" as="geometry" />
        </mxCell>
        <mxCell id="uCJwQiDcoW36MTH-ZRmm-35" value="KA" style="rounded=0;whiteSpace=wrap;html=1;strokeWidth=4;shadow=1;sketch=1;fontSize=16;fontStyle=1;fillColor=#dae8fc;strokeColor=#6c8ebf;" parent="1" vertex="1">
          <mxGeometry x="600" y="520" width="120" height="80" as="geometry" />
        </mxCell>
        <mxCell id="uCJwQiDcoW36MTH-ZRmm-38" value="Win editor" style="rounded=0;whiteSpace=wrap;html=1;strokeWidth=4;shadow=1;sketch=1;fontSize=16;fontStyle=1;fillColor=#dae8fc;strokeColor=#6c8ebf;" parent="1" vertex="1">
          <mxGeometry x="760" y="400" width="120" height="80" as="geometry" />
        </mxCell>
      </root>
    </mxGraphModel>
  </diagram>
  <diagram id="PQS81siOcfHgZgh-vMC1" name="Страница 2">
    <mxGraphModel dx="2187" dy="829" grid="1" gridSize="10" guides="1" tooltips="1" connect="1" arrows="1" fold="1" page="1" pageScale="1" pageWidth="827" pageHeight="1169" math="0" shadow="0">
      <root>
        <mxCell id="0" />
        <mxCell id="1" parent="0" />
        <mxCell id="MEfwGD5NDCXlidGpUoYc-5" style="edgeStyle=orthogonalEdgeStyle;rounded=0;sketch=1;orthogonalLoop=1;jettySize=auto;html=1;exitX=0.5;exitY=1;exitDx=0;exitDy=0;entryX=0.5;entryY=0;entryDx=0;entryDy=0;shadow=1;strokeColor=#999999;strokeWidth=4;fontSize=16;fontColor=#B3B3B3;endArrow=none;endFill=0;fontStyle=1" edge="1" parent="1" source="XH2nnqu-uXH1boqY67Wa-1" target="MEfwGD5NDCXlidGpUoYc-4">
          <mxGeometry relative="1" as="geometry" />
        </mxCell>
        <mxCell id="MEfwGD5NDCXlidGpUoYc-6" style="edgeStyle=orthogonalEdgeStyle;rounded=0;sketch=1;orthogonalLoop=1;jettySize=auto;html=1;exitX=0.5;exitY=1;exitDx=0;exitDy=0;shadow=1;strokeColor=#999999;strokeWidth=4;fontSize=16;fontColor=#B3B3B3;endArrow=none;endFill=0;fontStyle=1" edge="1" parent="1" source="XH2nnqu-uXH1boqY67Wa-1" target="MEfwGD5NDCXlidGpUoYc-3">
          <mxGeometry relative="1" as="geometry" />
        </mxCell>
        <mxCell id="MEfwGD5NDCXlidGpUoYc-7" style="edgeStyle=orthogonalEdgeStyle;rounded=0;sketch=1;orthogonalLoop=1;jettySize=auto;html=1;exitX=0.5;exitY=1;exitDx=0;exitDy=0;entryX=0.5;entryY=0;entryDx=0;entryDy=0;shadow=1;strokeColor=#999999;strokeWidth=4;fontSize=16;fontColor=#B3B3B3;endArrow=none;endFill=0;fontStyle=1" edge="1" parent="1" source="XH2nnqu-uXH1boqY67Wa-1" target="MEfwGD5NDCXlidGpUoYc-2">
          <mxGeometry relative="1" as="geometry" />
        </mxCell>
        <mxCell id="XH2nnqu-uXH1boqY67Wa-1" value="Creator" style="rounded=0;whiteSpace=wrap;html=1;shadow=1;strokeColor=#d6b656;strokeWidth=4;fontSize=16;fillColor=#fff2cc;sketch=1;fontStyle=1" vertex="1" parent="1">
          <mxGeometry x="320" y="40" width="120" height="80" as="geometry" />
        </mxCell>
        <mxCell id="MEfwGD5NDCXlidGpUoYc-64" style="edgeStyle=orthogonalEdgeStyle;rounded=0;sketch=1;orthogonalLoop=1;jettySize=auto;html=1;exitX=0.5;exitY=1;exitDx=0;exitDy=0;entryX=0.5;entryY=0;entryDx=0;entryDy=0;shadow=1;strokeColor=#999999;strokeWidth=4;fontSize=16;fontColor=#B3B3B3;endArrow=none;endFill=0;fontStyle=1" edge="1" parent="1" source="MEfwGD5NDCXlidGpUoYc-2" target="MEfwGD5NDCXlidGpUoYc-61">
          <mxGeometry relative="1" as="geometry" />
        </mxCell>
        <mxCell id="MEfwGD5NDCXlidGpUoYc-65" style="edgeStyle=orthogonalEdgeStyle;rounded=0;sketch=1;orthogonalLoop=1;jettySize=auto;html=1;exitX=0.5;exitY=1;exitDx=0;exitDy=0;shadow=1;strokeColor=#999999;strokeWidth=4;fontSize=16;fontColor=#B3B3B3;endArrow=none;endFill=0;fontStyle=1" edge="1" parent="1" source="MEfwGD5NDCXlidGpUoYc-2" target="MEfwGD5NDCXlidGpUoYc-63">
          <mxGeometry relative="1" as="geometry" />
        </mxCell>
        <mxCell id="MEfwGD5NDCXlidGpUoYc-66" style="edgeStyle=orthogonalEdgeStyle;rounded=0;sketch=1;orthogonalLoop=1;jettySize=auto;html=1;exitX=0.5;exitY=1;exitDx=0;exitDy=0;entryX=0.5;entryY=0;entryDx=0;entryDy=0;shadow=1;strokeColor=#999999;strokeWidth=4;fontSize=16;fontColor=#B3B3B3;endArrow=none;endFill=0;fontStyle=1" edge="1" parent="1" source="MEfwGD5NDCXlidGpUoYc-2" target="MEfwGD5NDCXlidGpUoYc-62">
          <mxGeometry relative="1" as="geometry" />
        </mxCell>
        <mxCell id="MEfwGD5NDCXlidGpUoYc-2" value="Automat" style="rounded=0;whiteSpace=wrap;html=1;shadow=1;strokeColor=#9673a6;strokeWidth=4;fontSize=16;fillColor=#e1d5e7;sketch=1;fontStyle=1" vertex="1" parent="1">
          <mxGeometry x="320" y="160" width="120" height="80" as="geometry" />
        </mxCell>
        <mxCell id="MEfwGD5NDCXlidGpUoYc-25" style="edgeStyle=orthogonalEdgeStyle;rounded=0;sketch=1;orthogonalLoop=1;jettySize=auto;html=1;exitX=0.5;exitY=1;exitDx=0;exitDy=0;shadow=1;strokeColor=#999999;strokeWidth=4;fontSize=16;fontColor=#B3B3B3;endArrow=none;endFill=0;fontStyle=1" edge="1" parent="1" source="MEfwGD5NDCXlidGpUoYc-3" target="MEfwGD5NDCXlidGpUoYc-22">
          <mxGeometry relative="1" as="geometry" />
        </mxCell>
        <mxCell id="MEfwGD5NDCXlidGpUoYc-26" style="edgeStyle=orthogonalEdgeStyle;rounded=0;sketch=1;orthogonalLoop=1;jettySize=auto;html=1;exitX=0.5;exitY=1;exitDx=0;exitDy=0;shadow=1;strokeColor=#999999;strokeWidth=4;fontSize=16;fontColor=#B3B3B3;endArrow=none;endFill=0;fontStyle=1" edge="1" parent="1" source="MEfwGD5NDCXlidGpUoYc-3" target="MEfwGD5NDCXlidGpUoYc-23">
          <mxGeometry relative="1" as="geometry" />
        </mxCell>
        <mxCell id="MEfwGD5NDCXlidGpUoYc-27" style="edgeStyle=orthogonalEdgeStyle;rounded=0;sketch=1;orthogonalLoop=1;jettySize=auto;html=1;exitX=0.5;exitY=1;exitDx=0;exitDy=0;entryX=0.5;entryY=0;entryDx=0;entryDy=0;shadow=1;strokeColor=#999999;strokeWidth=4;fontSize=16;fontColor=#B3B3B3;endArrow=none;endFill=0;fontStyle=1" edge="1" parent="1" source="MEfwGD5NDCXlidGpUoYc-3" target="MEfwGD5NDCXlidGpUoYc-24">
          <mxGeometry relative="1" as="geometry" />
        </mxCell>
        <mxCell id="MEfwGD5NDCXlidGpUoYc-3" value="Worker" style="rounded=0;whiteSpace=wrap;html=1;shadow=1;strokeColor=#9673a6;strokeWidth=4;fontSize=16;fillColor=#e1d5e7;sketch=1;fontStyle=1" vertex="1" parent="1">
          <mxGeometry x="880" y="160" width="120" height="80" as="geometry" />
        </mxCell>
        <mxCell id="MEfwGD5NDCXlidGpUoYc-16" style="edgeStyle=orthogonalEdgeStyle;rounded=0;sketch=1;orthogonalLoop=1;jettySize=auto;html=1;exitX=0.5;exitY=1;exitDx=0;exitDy=0;entryX=0.5;entryY=0;entryDx=0;entryDy=0;shadow=1;strokeColor=#999999;strokeWidth=4;fontSize=16;fontColor=#B3B3B3;endArrow=none;endFill=0;fontStyle=1" edge="1" parent="1" source="MEfwGD5NDCXlidGpUoYc-4" target="MEfwGD5NDCXlidGpUoYc-8">
          <mxGeometry relative="1" as="geometry" />
        </mxCell>
        <mxCell id="MEfwGD5NDCXlidGpUoYc-17" style="edgeStyle=orthogonalEdgeStyle;rounded=0;sketch=1;orthogonalLoop=1;jettySize=auto;html=1;exitX=0.5;exitY=1;exitDx=0;exitDy=0;shadow=1;strokeColor=#999999;strokeWidth=4;fontSize=16;fontColor=#B3B3B3;endArrow=none;endFill=0;fontStyle=1" edge="1" parent="1" source="MEfwGD5NDCXlidGpUoYc-4" target="MEfwGD5NDCXlidGpUoYc-9">
          <mxGeometry relative="1" as="geometry" />
        </mxCell>
        <mxCell id="MEfwGD5NDCXlidGpUoYc-4" value="Form" style="rounded=0;whiteSpace=wrap;html=1;shadow=1;strokeColor=#9673a6;strokeWidth=4;fontSize=16;fillColor=#e1d5e7;sketch=1;fontStyle=1" vertex="1" parent="1">
          <mxGeometry x="-160" y="160" width="120" height="80" as="geometry" />
        </mxCell>
        <mxCell id="MEfwGD5NDCXlidGpUoYc-42" style="edgeStyle=orthogonalEdgeStyle;rounded=0;sketch=1;orthogonalLoop=1;jettySize=auto;html=1;exitX=0;exitY=0.5;exitDx=0;exitDy=0;entryX=0;entryY=0.5;entryDx=0;entryDy=0;shadow=1;strokeColor=#999999;strokeWidth=4;fontSize=16;fontColor=#B3B3B3;endArrow=none;endFill=0;fontStyle=1" edge="1" parent="1" source="MEfwGD5NDCXlidGpUoYc-8" target="MEfwGD5NDCXlidGpUoYc-36">
          <mxGeometry relative="1" as="geometry" />
        </mxCell>
        <mxCell id="MEfwGD5NDCXlidGpUoYc-43" style="edgeStyle=orthogonalEdgeStyle;rounded=0;sketch=1;orthogonalLoop=1;jettySize=auto;html=1;exitX=0;exitY=0.5;exitDx=0;exitDy=0;entryX=0;entryY=0.5;entryDx=0;entryDy=0;shadow=1;strokeColor=#999999;strokeWidth=4;fontSize=16;fontColor=#B3B3B3;endArrow=none;endFill=0;fontStyle=1" edge="1" parent="1" source="MEfwGD5NDCXlidGpUoYc-8" target="MEfwGD5NDCXlidGpUoYc-40">
          <mxGeometry relative="1" as="geometry" />
        </mxCell>
        <mxCell id="MEfwGD5NDCXlidGpUoYc-44" style="edgeStyle=orthogonalEdgeStyle;rounded=0;sketch=1;orthogonalLoop=1;jettySize=auto;html=1;exitX=0;exitY=0.5;exitDx=0;exitDy=0;entryX=0;entryY=0.5;entryDx=0;entryDy=0;shadow=1;strokeColor=#999999;strokeWidth=4;fontSize=16;fontColor=#B3B3B3;endArrow=none;endFill=0;fontStyle=1" edge="1" parent="1" source="MEfwGD5NDCXlidGpUoYc-8" target="MEfwGD5NDCXlidGpUoYc-41">
          <mxGeometry relative="1" as="geometry" />
        </mxCell>
        <mxCell id="MEfwGD5NDCXlidGpUoYc-8" value="Input" style="rounded=0;whiteSpace=wrap;html=1;shadow=1;strokeColor=#6c8ebf;strokeWidth=4;fontSize=16;fillColor=#dae8fc;sketch=1;fontStyle=1" vertex="1" parent="1">
          <mxGeometry x="-240" y="280" width="120" height="80" as="geometry" />
        </mxCell>
        <mxCell id="MEfwGD5NDCXlidGpUoYc-51" style="edgeStyle=orthogonalEdgeStyle;rounded=0;sketch=1;orthogonalLoop=1;jettySize=auto;html=1;exitX=0;exitY=0.5;exitDx=0;exitDy=0;entryX=0;entryY=0.5;entryDx=0;entryDy=0;shadow=1;strokeColor=#999999;strokeWidth=4;fontSize=16;fontColor=#B3B3B3;endArrow=none;endFill=0;fontStyle=1" edge="1" parent="1" source="MEfwGD5NDCXlidGpUoYc-9" target="MEfwGD5NDCXlidGpUoYc-48">
          <mxGeometry relative="1" as="geometry" />
        </mxCell>
        <mxCell id="MEfwGD5NDCXlidGpUoYc-52" style="edgeStyle=orthogonalEdgeStyle;rounded=0;sketch=1;orthogonalLoop=1;jettySize=auto;html=1;exitX=0;exitY=0.5;exitDx=0;exitDy=0;entryX=0;entryY=0.5;entryDx=0;entryDy=0;shadow=1;strokeColor=#999999;strokeWidth=4;fontSize=16;fontColor=#B3B3B3;endArrow=none;endFill=0;fontStyle=1" edge="1" parent="1" source="MEfwGD5NDCXlidGpUoYc-9" target="MEfwGD5NDCXlidGpUoYc-49">
          <mxGeometry relative="1" as="geometry" />
        </mxCell>
        <mxCell id="MEfwGD5NDCXlidGpUoYc-53" style="edgeStyle=orthogonalEdgeStyle;rounded=0;sketch=1;orthogonalLoop=1;jettySize=auto;html=1;exitX=0;exitY=0.5;exitDx=0;exitDy=0;entryX=0;entryY=0.5;entryDx=0;entryDy=0;shadow=1;strokeColor=#999999;strokeWidth=4;fontSize=16;fontColor=#B3B3B3;endArrow=none;endFill=0;fontStyle=1" edge="1" parent="1" source="MEfwGD5NDCXlidGpUoYc-9" target="MEfwGD5NDCXlidGpUoYc-50">
          <mxGeometry relative="1" as="geometry" />
        </mxCell>
        <mxCell id="MEfwGD5NDCXlidGpUoYc-9" value="Form" style="rounded=0;whiteSpace=wrap;html=1;shadow=1;strokeColor=#6c8ebf;strokeWidth=4;fontSize=16;fillColor=#dae8fc;sketch=1;fontStyle=1" vertex="1" parent="1">
          <mxGeometry x="-80" y="280" width="120" height="80" as="geometry" />
        </mxCell>
        <mxCell id="MEfwGD5NDCXlidGpUoYc-76" style="edgeStyle=orthogonalEdgeStyle;rounded=0;sketch=1;orthogonalLoop=1;jettySize=auto;html=1;exitX=0;exitY=0.5;exitDx=0;exitDy=0;entryX=0;entryY=0.5;entryDx=0;entryDy=0;shadow=1;strokeColor=#999999;strokeWidth=4;fontSize=16;fontColor=#B3B3B3;endArrow=none;endFill=0;fontStyle=1" edge="1" parent="1" source="MEfwGD5NDCXlidGpUoYc-22" target="MEfwGD5NDCXlidGpUoYc-74">
          <mxGeometry relative="1" as="geometry" />
        </mxCell>
        <mxCell id="MEfwGD5NDCXlidGpUoYc-77" style="edgeStyle=orthogonalEdgeStyle;rounded=0;sketch=1;orthogonalLoop=1;jettySize=auto;html=1;exitX=0;exitY=0.5;exitDx=0;exitDy=0;entryX=0;entryY=0.5;entryDx=0;entryDy=0;shadow=1;strokeColor=#999999;strokeWidth=4;fontSize=16;fontColor=#B3B3B3;endArrow=none;endFill=0;fontStyle=1" edge="1" parent="1" source="MEfwGD5NDCXlidGpUoYc-22" target="MEfwGD5NDCXlidGpUoYc-75">
          <mxGeometry relative="1" as="geometry" />
        </mxCell>
        <mxCell id="MEfwGD5NDCXlidGpUoYc-22" value="Form" style="rounded=0;whiteSpace=wrap;html=1;shadow=1;strokeColor=#6c8ebf;strokeWidth=4;fontSize=16;fillColor=#dae8fc;sketch=1;fontStyle=1" vertex="1" parent="1">
          <mxGeometry x="720" y="280" width="120" height="80" as="geometry" />
        </mxCell>
        <mxCell id="MEfwGD5NDCXlidGpUoYc-82" style="edgeStyle=orthogonalEdgeStyle;rounded=0;sketch=1;orthogonalLoop=1;jettySize=auto;html=1;exitX=0;exitY=0.5;exitDx=0;exitDy=0;entryX=0;entryY=0.5;entryDx=0;entryDy=0;shadow=1;strokeColor=#999999;strokeWidth=4;fontSize=16;fontColor=#B3B3B3;endArrow=none;endFill=0;fontStyle=1" edge="1" parent="1" source="MEfwGD5NDCXlidGpUoYc-23" target="MEfwGD5NDCXlidGpUoYc-78">
          <mxGeometry relative="1" as="geometry" />
        </mxCell>
        <mxCell id="MEfwGD5NDCXlidGpUoYc-23" value="Button" style="rounded=0;whiteSpace=wrap;html=1;shadow=1;strokeColor=#6c8ebf;strokeWidth=4;fontSize=16;fillColor=#dae8fc;sketch=1;fontStyle=1" vertex="1" parent="1">
          <mxGeometry x="880" y="280" width="120" height="80" as="geometry" />
        </mxCell>
        <mxCell id="MEfwGD5NDCXlidGpUoYc-83" style="edgeStyle=orthogonalEdgeStyle;rounded=0;sketch=1;orthogonalLoop=1;jettySize=auto;html=1;exitX=0;exitY=0.5;exitDx=0;exitDy=0;entryX=0;entryY=0.5;entryDx=0;entryDy=0;shadow=1;strokeColor=#999999;strokeWidth=4;fontSize=16;fontColor=#B3B3B3;endArrow=none;endFill=0;fontStyle=1" edge="1" parent="1" source="MEfwGD5NDCXlidGpUoYc-24" target="MEfwGD5NDCXlidGpUoYc-81">
          <mxGeometry relative="1" as="geometry" />
        </mxCell>
        <mxCell id="MEfwGD5NDCXlidGpUoYc-24" value="Calendary" style="rounded=0;whiteSpace=wrap;html=1;shadow=1;strokeColor=#6c8ebf;strokeWidth=4;fontSize=16;fillColor=#dae8fc;sketch=1;fontStyle=1" vertex="1" parent="1">
          <mxGeometry x="1040" y="280" width="120" height="80" as="geometry" />
        </mxCell>
        <mxCell id="MEfwGD5NDCXlidGpUoYc-36" value="Entity" style="rounded=0;whiteSpace=wrap;html=1;shadow=1;strokeColor=#82b366;strokeWidth=4;fontSize=16;fillColor=#d5e8d4;sketch=1;fontStyle=1" vertex="1" parent="1">
          <mxGeometry x="-240" y="400" width="120" height="80" as="geometry" />
        </mxCell>
        <mxCell id="MEfwGD5NDCXlidGpUoYc-40" value="CRUD" style="rounded=0;whiteSpace=wrap;html=1;shadow=1;strokeColor=#82b366;strokeWidth=4;fontSize=16;fillColor=#d5e8d4;sketch=1;fontStyle=1" vertex="1" parent="1">
          <mxGeometry x="-240" y="520" width="120" height="80" as="geometry" />
        </mxCell>
        <mxCell id="MEfwGD5NDCXlidGpUoYc-41" value="Test" style="rounded=0;whiteSpace=wrap;html=1;shadow=1;strokeColor=#82b366;strokeWidth=4;fontSize=16;fillColor=#d5e8d4;sketch=1;fontStyle=1" vertex="1" parent="1">
          <mxGeometry x="-240" y="640" width="120" height="80" as="geometry" />
        </mxCell>
        <mxCell id="MEfwGD5NDCXlidGpUoYc-48" value="Entity" style="rounded=0;whiteSpace=wrap;html=1;shadow=1;strokeColor=#82b366;strokeWidth=4;fontSize=16;fillColor=#d5e8d4;sketch=1;fontStyle=1" vertex="1" parent="1">
          <mxGeometry x="-80" y="400" width="120" height="80" as="geometry" />
        </mxCell>
        <mxCell id="MEfwGD5NDCXlidGpUoYc-49" value="CRUD" style="rounded=0;whiteSpace=wrap;html=1;shadow=1;strokeColor=#82b366;strokeWidth=4;fontSize=16;fillColor=#d5e8d4;sketch=1;fontStyle=1" vertex="1" parent="1">
          <mxGeometry x="-80" y="520" width="120" height="80" as="geometry" />
        </mxCell>
        <mxCell id="MEfwGD5NDCXlidGpUoYc-50" value="Test" style="rounded=0;whiteSpace=wrap;html=1;shadow=1;strokeColor=#82b366;strokeWidth=4;fontSize=16;fillColor=#d5e8d4;sketch=1;fontStyle=1" vertex="1" parent="1">
          <mxGeometry x="-80" y="640" width="120" height="80" as="geometry" />
        </mxCell>
        <mxCell id="MEfwGD5NDCXlidGpUoYc-54" value="Creator form" style="rounded=0;whiteSpace=wrap;html=1;shadow=1;strokeColor=#82b366;strokeWidth=4;fontSize=16;fillColor=#d5e8d4;sketch=1;fontStyle=1" vertex="1" parent="1">
          <mxGeometry x="160" y="400" width="120" height="80" as="geometry" />
        </mxCell>
        <mxCell id="MEfwGD5NDCXlidGpUoYc-55" value="Creator beginer button" style="rounded=0;whiteSpace=wrap;html=1;shadow=1;strokeColor=#82b366;strokeWidth=4;fontSize=16;fillColor=#d5e8d4;sketch=1;fontStyle=1" vertex="1" parent="1">
          <mxGeometry x="160" y="520" width="120" height="80" as="geometry" />
        </mxCell>
        <mxCell id="MEfwGD5NDCXlidGpUoYc-56" value="Creator beginer time" style="rounded=0;whiteSpace=wrap;html=1;shadow=1;strokeColor=#82b366;strokeWidth=4;fontSize=16;fillColor=#d5e8d4;sketch=1;fontStyle=1" vertex="1" parent="1">
          <mxGeometry x="160" y="640" width="120" height="80" as="geometry" />
        </mxCell>
        <mxCell id="MEfwGD5NDCXlidGpUoYc-57" value="Meedle" style="rounded=0;whiteSpace=wrap;html=1;shadow=1;strokeColor=#82b366;strokeWidth=4;fontSize=16;fillColor=#d5e8d4;sketch=1;fontStyle=1" vertex="1" parent="1">
          <mxGeometry x="320" y="400" width="120" height="80" as="geometry" />
        </mxCell>
        <mxCell id="MEfwGD5NDCXlidGpUoYc-58" value="Closed" style="rounded=0;whiteSpace=wrap;html=1;shadow=1;strokeColor=#82b366;strokeWidth=4;fontSize=16;fillColor=#d5e8d4;sketch=1;fontStyle=1" vertex="1" parent="1">
          <mxGeometry x="480" y="400" width="120" height="80" as="geometry" />
        </mxCell>
        <mxCell id="MEfwGD5NDCXlidGpUoYc-67" style="edgeStyle=orthogonalEdgeStyle;rounded=0;sketch=1;orthogonalLoop=1;jettySize=auto;html=1;exitX=0;exitY=0.5;exitDx=0;exitDy=0;entryX=0;entryY=0.5;entryDx=0;entryDy=0;shadow=1;strokeColor=#999999;strokeWidth=4;fontSize=16;fontColor=#B3B3B3;endArrow=none;endFill=0;fontStyle=1" edge="1" parent="1" source="MEfwGD5NDCXlidGpUoYc-61" target="MEfwGD5NDCXlidGpUoYc-54">
          <mxGeometry relative="1" as="geometry" />
        </mxCell>
        <mxCell id="MEfwGD5NDCXlidGpUoYc-72" style="edgeStyle=orthogonalEdgeStyle;rounded=0;sketch=1;orthogonalLoop=1;jettySize=auto;html=1;exitX=0;exitY=0.5;exitDx=0;exitDy=0;entryX=0;entryY=0.5;entryDx=0;entryDy=0;shadow=1;strokeColor=#999999;strokeWidth=4;fontSize=16;fontColor=#B3B3B3;endArrow=none;endFill=0;fontStyle=1" edge="1" parent="1" source="MEfwGD5NDCXlidGpUoYc-61" target="MEfwGD5NDCXlidGpUoYc-55">
          <mxGeometry relative="1" as="geometry" />
        </mxCell>
        <mxCell id="MEfwGD5NDCXlidGpUoYc-73" style="edgeStyle=orthogonalEdgeStyle;rounded=0;sketch=1;orthogonalLoop=1;jettySize=auto;html=1;exitX=0;exitY=0.5;exitDx=0;exitDy=0;entryX=0;entryY=0.5;entryDx=0;entryDy=0;shadow=1;strokeColor=#999999;strokeWidth=4;fontSize=16;fontColor=#B3B3B3;endArrow=none;endFill=0;fontStyle=1" edge="1" parent="1" source="MEfwGD5NDCXlidGpUoYc-61" target="MEfwGD5NDCXlidGpUoYc-56">
          <mxGeometry relative="1" as="geometry" />
        </mxCell>
        <mxCell id="MEfwGD5NDCXlidGpUoYc-61" value="Start" style="rounded=0;whiteSpace=wrap;html=1;shadow=1;strokeColor=#6c8ebf;strokeWidth=4;fontSize=16;fillColor=#dae8fc;sketch=1;fontStyle=1" vertex="1" parent="1">
          <mxGeometry x="160" y="280" width="120" height="80" as="geometry" />
        </mxCell>
        <mxCell id="MEfwGD5NDCXlidGpUoYc-70" style="edgeStyle=orthogonalEdgeStyle;rounded=0;sketch=1;orthogonalLoop=1;jettySize=auto;html=1;exitX=0;exitY=0.5;exitDx=0;exitDy=0;entryX=0;entryY=0.5;entryDx=0;entryDy=0;shadow=1;strokeColor=#999999;strokeWidth=4;fontSize=16;fontColor=#B3B3B3;endArrow=none;endFill=0;fontStyle=1" edge="1" parent="1" source="MEfwGD5NDCXlidGpUoYc-62" target="MEfwGD5NDCXlidGpUoYc-57">
          <mxGeometry relative="1" as="geometry" />
        </mxCell>
        <mxCell id="MEfwGD5NDCXlidGpUoYc-62" value="Midle" style="rounded=0;whiteSpace=wrap;html=1;shadow=1;strokeColor=#6c8ebf;strokeWidth=4;fontSize=16;fillColor=#dae8fc;sketch=1;fontStyle=1" vertex="1" parent="1">
          <mxGeometry x="320" y="280" width="120" height="80" as="geometry" />
        </mxCell>
        <mxCell id="MEfwGD5NDCXlidGpUoYc-71" style="edgeStyle=orthogonalEdgeStyle;rounded=0;sketch=1;orthogonalLoop=1;jettySize=auto;html=1;exitX=0;exitY=0.5;exitDx=0;exitDy=0;entryX=0;entryY=0.5;entryDx=0;entryDy=0;shadow=1;strokeColor=#999999;strokeWidth=4;fontSize=16;fontColor=#B3B3B3;endArrow=none;endFill=0;fontStyle=1" edge="1" parent="1" source="MEfwGD5NDCXlidGpUoYc-63" target="MEfwGD5NDCXlidGpUoYc-58">
          <mxGeometry relative="1" as="geometry" />
        </mxCell>
        <mxCell id="MEfwGD5NDCXlidGpUoYc-63" value="Stop" style="rounded=0;whiteSpace=wrap;html=1;shadow=1;strokeColor=#6c8ebf;strokeWidth=4;fontSize=16;fillColor=#dae8fc;sketch=1;fontStyle=1" vertex="1" parent="1">
          <mxGeometry x="480" y="280" width="120" height="80" as="geometry" />
        </mxCell>
        <mxCell id="MEfwGD5NDCXlidGpUoYc-74" value="Create" style="rounded=0;whiteSpace=wrap;html=1;shadow=1;strokeColor=#82b366;strokeWidth=4;fontSize=16;fillColor=#d5e8d4;sketch=1;fontStyle=1" vertex="1" parent="1">
          <mxGeometry x="720" y="400" width="120" height="80" as="geometry" />
        </mxCell>
        <mxCell id="MEfwGD5NDCXlidGpUoYc-75" value="Test" style="rounded=0;whiteSpace=wrap;html=1;shadow=1;strokeColor=#82b366;strokeWidth=4;fontSize=16;fillColor=#d5e8d4;sketch=1;fontStyle=1" vertex="1" parent="1">
          <mxGeometry x="720" y="520" width="120" height="80" as="geometry" />
        </mxCell>
        <mxCell id="MEfwGD5NDCXlidGpUoYc-78" value="Create" style="rounded=0;whiteSpace=wrap;html=1;shadow=1;strokeColor=#82b366;strokeWidth=4;fontSize=16;fillColor=#d5e8d4;sketch=1;fontStyle=1" vertex="1" parent="1">
          <mxGeometry x="880" y="400" width="120" height="80" as="geometry" />
        </mxCell>
        <mxCell id="MEfwGD5NDCXlidGpUoYc-85" style="edgeStyle=orthogonalEdgeStyle;rounded=0;sketch=1;orthogonalLoop=1;jettySize=auto;html=1;exitX=0;exitY=0.5;exitDx=0;exitDy=0;entryX=0;entryY=0.5;entryDx=0;entryDy=0;shadow=1;strokeColor=#999999;strokeWidth=4;fontSize=16;fontColor=#B3B3B3;endArrow=none;endFill=0;fontStyle=1" edge="1" parent="1" source="MEfwGD5NDCXlidGpUoYc-79" target="MEfwGD5NDCXlidGpUoYc-23">
          <mxGeometry relative="1" as="geometry" />
        </mxCell>
        <mxCell id="MEfwGD5NDCXlidGpUoYc-79" value="Test" style="rounded=0;whiteSpace=wrap;html=1;shadow=1;strokeColor=#82b366;strokeWidth=4;fontSize=16;fillColor=#d5e8d4;sketch=1;fontStyle=1" vertex="1" parent="1">
          <mxGeometry x="880" y="520" width="120" height="80" as="geometry" />
        </mxCell>
        <mxCell id="MEfwGD5NDCXlidGpUoYc-84" style="edgeStyle=orthogonalEdgeStyle;rounded=0;sketch=1;orthogonalLoop=1;jettySize=auto;html=1;exitX=0;exitY=0.5;exitDx=0;exitDy=0;entryX=0;entryY=0.5;entryDx=0;entryDy=0;shadow=1;strokeColor=#999999;strokeWidth=4;fontSize=16;fontColor=#B3B3B3;endArrow=none;endFill=0;fontStyle=1" edge="1" parent="1" source="MEfwGD5NDCXlidGpUoYc-80" target="MEfwGD5NDCXlidGpUoYc-24">
          <mxGeometry relative="1" as="geometry" />
        </mxCell>
        <mxCell id="MEfwGD5NDCXlidGpUoYc-80" value="Create" style="rounded=0;whiteSpace=wrap;html=1;shadow=1;strokeColor=#82b366;strokeWidth=4;fontSize=16;fillColor=#d5e8d4;sketch=1;fontStyle=1" vertex="1" parent="1">
          <mxGeometry x="1040" y="400" width="120" height="80" as="geometry" />
        </mxCell>
        <mxCell id="MEfwGD5NDCXlidGpUoYc-81" value="Test" style="rounded=0;whiteSpace=wrap;html=1;shadow=1;strokeColor=#82b366;strokeWidth=4;fontSize=16;fillColor=#d5e8d4;sketch=1;fontStyle=1" vertex="1" parent="1">
          <mxGeometry x="1040" y="520" width="120" height="80" as="geometry" />
        </mxCell>
      </root>
    </mxGraphModel>
  </diagram>
</mxfile>
